{
    "KPlugin": {
        "BugReportUrl": "https://bugs.kde.org/enter_bug.cgi?product=systemsettings&component=kcm_fontinst",
        "Description": "Install, manage and preview fonts",
        "Description[ar]": "ثبت وأدر واستعرض الخطوط",
        "Description[az]": "Şriftləri quraşdırmaq, idarə etmək və onlara baxış",
        "Description[be]": "Усталяванне, кіраванне, папярэдні прагляд шрыфтоў",
        "Description[bg]": "Инсталиране, управление и преглед на шрифтове",
        "Description[ca@valencia]": "Instal·la, gestiona i previsualitza les fonts",
        "Description[ca]": "Instal·la, gestiona i previsualitza les fonts",
        "Description[cs]": "Instalace, správa a náhled písem",
        "Description[da]": "Installér, håndtér og forhåndsvis skrifttyper",
        "Description[de]": "Schriftarten installieren, verwalten und betrachten",
        "Description[en_GB]": "Install, manage and preview fonts",
        "Description[eo]": "Instali, administri kaj antaŭrigardi tiparojn",
        "Description[es]": "Instalación, gestión y vista previa de tipos de letra",
        "Description[et]": "Fontide haldamine, paigaldamine ja eelvaatlus",
        "Description[eu]": "Letra-tipoak instalatu, kudeatu eta aurreikusi",
        "Description[fi]": "Asenna, hallitse ja esikatsele fontteja",
        "Description[fr]": "Installer, gérer et afficher un aperçu des polices de caractères",
        "Description[hi]": "फोंट स्थापित करें, प्रबंधित करें और पूर्वावलोकन करें",
        "Description[hu]": "Betűkészletek telepítése, kezelése és előnézete",
        "Description[ia]": "Installa, gere e ante vide fontes",
        "Description[id]": "Instal, kelola dan pratinjau font-font",
        "Description[is]": "Setja inn, meðhöndla og forskoða letur",
        "Description[it]": "Installa, gestisci e mostra le anteprime dei caratteri",
        "Description[ja]": "フォントをインストール、管理、プレビュー",
        "Description[ka]": "დააყენეთ, მართეთ და ნახეთ ფონტები",
        "Description[ko]": "글꼴 설치, 미리 보기, 관리",
        "Description[lt]": "Įdiegti, tvarkyti ir peržiūrėti šriftus",
        "Description[nl]": "Lettertypen installeren, beheren en bekijken",
        "Description[nn]": "Installer, handter og vis skrifter",
        "Description[pa]": "ਫੋਂਟ ਇੰਸਟਾਲ, ਇੰਤਜ਼ਾਮ ਕਰੋ ਅਤੇ ਝਲਕ ਵੇਖੋ",
        "Description[pl]": "Wgrywanie, zarządzanie i podgląd czcionek",
        "Description[pt]": "Instala, gere e antevê os tipos de letra",
        "Description[pt_BR]": "Instale, gerencie e visualize fontes",
        "Description[ro]": "Instalează, gestionează și previzualizează fonturi",
        "Description[ru]": "Установка, управление и просмотр шрифтов",
        "Description[sk]": "Inštalujte, spravujte a zobrazujte ukážky písiem",
        "Description[sl]": "Nameščanje, upravljanje in predogled pisav",
        "Description[sv]": "Installera, hantera och förhandsgranska teckensnitt",
        "Description[ta]": "எழுத்துருக்களை நிறுவுங்கள், கையாளுங்கள்,  மற்றும் முன்னோட்டம் காணுங்கள்",
        "Description[tr]": "Yazıtiplerini kurun, yönetin ve önizleyin",
        "Description[uk]": "Встановлення, керування та попередній перегляд шрифтів",
        "Description[vi]": "Cài đặt, quản lí và xem thử phông chữ",
        "Description[x-test]": "xxInstall, manage and preview fontsxx",
        "Description[zh_CN]": "安装、管理和预览字体",
        "Description[zh_TW]": "字型安裝、管理及預覽",
        "Icon": "preferences-desktop-font-installer",
        "Name": "Font Management",
        "Name[ar]": "إدارة الخطوط",
        "Name[az]": "Şrift idarəetməsi",
        "Name[be]": "Кіраванне шрыфтамі",
        "Name[bg]": "Управление на шрифтове",
        "Name[ca@valencia]": "Gestioneu les fonts de lletres",
        "Name[ca]": "Gestió de les fonts de lletres",
        "Name[cs]": "Správa písem",
        "Name[da]": "Håndtering af skrifttyper",
        "Name[de]": "Schriftarten-Verwaltung",
        "Name[en_GB]": "Font Management",
        "Name[eo]": "Tipara Administrilo",
        "Name[es]": "Gestión de tipos de letra",
        "Name[et]": "Fondihaldus",
        "Name[eu]": "Letra-tipo kudeaketa",
        "Name[fi]": "Fontinhallinta",
        "Name[fr]": "Gestion des polices de caractères",
        "Name[hi]": "फ़ॉन्ट प्रबंधन",
        "Name[hu]": "Betűtípus-kezelés",
        "Name[ia]": "Gestion de font",
        "Name[id]": "Pengelolaan Font",
        "Name[is]": "Umsjón með leturgerðum",
        "Name[it]": "Gestione dei caratteri",
        "Name[ja]": "フォント管理",
        "Name[ka]": "ფონტების მართვა",
        "Name[ko]": "글꼴 관리",
        "Name[lt]": "Šriftų tvarkymas",
        "Name[ml]": "അക്ഷരസഞ്ചയ മാനേജ്മെന്റ്",
        "Name[nl]": "Lettertypenbeheer",
        "Name[nn]": "Skrift­handsaming",
        "Name[pa]": "ਫੋਂਟ ਇੰਤਜ਼ਾਮ",
        "Name[pl]": "Zarządzanie czcionkami",
        "Name[pt]": "Gestão dos Tipos de Letra",
        "Name[pt_BR]": "Gerenciamento de fontes",
        "Name[ro]": "Gestiune fonturi",
        "Name[ru]": "Управление шрифтами",
        "Name[sk]": "Správa písma",
        "Name[sl]": "Upravljanje pisav",
        "Name[sv]": "Teckensnittshantering",
        "Name[ta]": "எழுத்துரு மேலாண்மை",
        "Name[tg]": "Мудири ҳарфҳо",
        "Name[tr]": "Yazıtipi Yönetimi",
        "Name[uk]": "Керування шрифтами",
        "Name[vi]": "Quản lí phông chữ",
        "Name[x-test]": "xxFont Managementxx",
        "Name[zh_CN]": "字体管理",
        "Name[zh_TW]": "字型管理"
    },
    "X-DocPath": "kcontrol/fontinst/index.html",
    "X-KDE-Keywords": "font,fonts,installer,truetype,type1,bitmap",
    "X-KDE-Keywords[ar]": "خط,خطوط,مثبت,تروتايب,تايب١,بت ماب",
    "X-KDE-Keywords[az]": "font,fonts,installer,truetype,type1,bitmap,şrift,şriftlər,",
    "X-KDE-Keywords[ca]": "tipus de lletra,tipus de lletres,instal·lador,truetype,type1,mapa de bits",
    "X-KDE-Keywords[cs]": "písmo,písma,instalátor,truetype,type1,bitmap",
    "X-KDE-Keywords[da]": "font,fonts,skrifttype,skrifttyper,installer,truetype,type1,bitmap",
    "X-KDE-Keywords[de]": "Schrift,Fonts,Schriftarten,Installation,TrueType,Type1,Bitmapschriften",
    "X-KDE-Keywords[en_GB]": "font,fonts,installer,truetype,type1,bitmap",
    "X-KDE-Keywords[es]": "tipo de letra,tipos de letra,instalador,truetype,type1,bitmap,mapa de bits",
    "X-KDE-Keywords[et]": "font,fondid,paigaldaja,truetype,type1,bitmap,bittraster",
    "X-KDE-Keywords[eu]": "letra-tipoa,letra-tipoak,instalatzailea,truetype,type1,bit-mapa",
    "X-KDE-Keywords[fi]": "fontti,fontit,asentaja,truetype,type1,bittikartta",
    "X-KDE-Keywords[fr]": "police, polices, installateur, TrueType, type1, bitmap",
    "X-KDE-Keywords[hi]": "फ़ॉन्ट,फ़ॉन्ट,इंस्टॉलर,ट्रू टाइप,टाइप1,बिटमैप",
    "X-KDE-Keywords[hu]": "betűtípus,betűtípusok,telepítő,truetype,type1,bitmap",
    "X-KDE-Keywords[ia]": "font,fonts,installator,truetype,type1,bitmap",
    "X-KDE-Keywords[id]": "font,font-font,penginstal,truetype,type1,bitmap",
    "X-KDE-Keywords[it]": "carattere,caratteri,installatore,truetype,type1,bitmap",
    "X-KDE-Keywords[ko]": "font,fonts,installer,truetype,type1,bitmap,글꼴,폰트,설치",
    "X-KDE-Keywords[lt]": "šriftas,sriftas,šriftai,sriftai,diegimo programa,truetype,type1,bitmap",
    "X-KDE-Keywords[ml]": "ഫോണ്ട്,ഫോണ്ടുകൾ,ഇൻസ്റ്റാളർ,ട്രൂടൈപ്പ്,ടൈപ്പ്1,ബിറ്റ്മാപ്",
    "X-KDE-Keywords[nl]": "lettertype,lettertypen,installatieprogramma,truetype,type1,bitmap",
    "X-KDE-Keywords[nn]": "skrift,skrifter,font,installer,truetype,type1,bitmap,punktskrift",
    "X-KDE-Keywords[pa]": "ਫੋਂਟ,ਫੌਂਟ,ਇੰਸਟਾਲਰ,ਟਰੂਟਾਈਪ,ਟਾਈਪ 1,ਬਿਟਮੈਪ",
    "X-KDE-Keywords[pl]": "czcionki,czcionka,instalator,truetype,typ1,mapa bitowa",
    "X-KDE-Keywords[pt]": "tipo de letra,tipos de letra,instalador,truetype,type1,imagem",
    "X-KDE-Keywords[pt_BR]": "fonte,fontes,instalador,truetype,type1,bitmap,imagem",
    "X-KDE-Keywords[ro]": "font,fonturi,instalator,truetype,type1,bitmap",
    "X-KDE-Keywords[ru]": "font,fonts,installer,truetype,type1,bitmap,шрифт,шрифты,установка шрифтов,инсталлятор,битовая карта,растровое изображение,удаление шрифтов",
    "X-KDE-Keywords[sk]": "písmo,písma,inštalátor,truetype,type1,bitmapa",
    "X-KDE-Keywords[sl]": "pisava,pisave,truetype,type1,bitne slike",
    "X-KDE-Keywords[sv]": "teckensnitt,installation,truetype,type1,bitavbildning",
    "X-KDE-Keywords[ta]": "font,fonts,installer,truetype,type1,bitmap, எழுத்துரு, எழுத்துருக்கள், நிறுவி, நிறுவு",
    "X-KDE-Keywords[tr]": "yazı tipi, yazı tipleri, yükleyici, truetype, tip1, bitmap",
    "X-KDE-Keywords[uk]": "font,fonts,installer,truetype,type1,bitmap,шрифт,шрифти,встановлювач,растрові",
    "X-KDE-Keywords[vi]": "font,fonts,phông chữ,installer,trình cài đặt,truetype,type1,bitmap,bản đồ bit",
    "X-KDE-Keywords[x-test]": "xxfontxx,xxfontsxx,xxinstallerxx,xxtruetypexx,xxtype1xx,xxbitmapxx",
    "X-KDE-Keywords[zh_CN]": "font,fonts,installer,truetype,type1,bitmap,字体,字体族,安装器,安装程序,点阵",
    "X-KDE-System-Settings-Parent-Category": "appearance",
    "X-KDE-Weight": 51
}
